tidyverse intro
…
Each new function in the pipeline operates on the results produced by the previous function.

Chaining functions together in a pipe like this:

starwars |>
  group_by(species) |>
  summarise(avg_height = mean(height, na.rm = TRUE)) |>
  arrange(avg_height)

starwars |>
  group_by(species) |>
  summarise(avg_height = mean(height, na.rm = TRUE)) |>
  arrange(avg_height)

# A tibble: 38 × 2
   species        avg_height
   <chr>               <dbl>
 1 Yoda's species        66 
 2 Aleena                79 
 3 Ewok                  88 
 4 Vulptereen            94 
 5 Dug                  112 
 6 Xexto                122 
 7 Droid                131.
 8 Toydarian            137 
 9 Sullustan            160 
10 Toong                163 
# ℹ 28 more rows
…
group_by(col) %>%

summarise(groupsum = sum(col2))

Reshape data from wide to long
pd.wide_to_long()
melt()
use pivot_longer()

4b. ARRANGE: Sorting

starwars |>
  arrange(homeworld)  #descending order: arrange(desc(homeworld))

# A tibble: 87 × 14
   name     height  mass hair_color skin_color eye_color birth_year sex   gender
   <chr>     <int> <dbl> <chr>      <chr>      <chr>          <dbl> <chr> <chr> 
 1 Leia Or…    150    49 brown      light      brown             19 fema… femin…
 2 Bail Pr…    191    NA black      tan        brown             67 male  mascu…
 3 Raymus …    188    79 brown      light      brown             NA male  mascu…
 4 Ratts T…     79    15 none       grey, blue unknown           NA male  mascu…
 5 Lobot       175    79 none       light      blue              37 male  mascu…
 6 Jek Ton…    180   110 brown      fair       blue              NA <NA>  <NA>  
 7 Nute Gu…    191    90 none       mottled g… red               NA male  mascu…
 8 Ki-Adi-…    198    82 white      pale       yellow            92 male  mascu…
 9 Mas Ame…    196    NA none       blue       blue              NA male  mascu…
10 Mon Mot…    150    NA auburn     fair       blue              48 fema… femin…
# ℹ 77 more rows
# ℹ 5 more variables: homeworld <chr>, species <chr>, films <list>,
#   vehicles <list>, starships <list>
…
4d. SELECT: Subset (columns)

starwars |>
  select(name, homeworld, species)  #reorder names here to reorder columns

# A tibble: 87 × 3
   name               homeworld species
   <chr>              <chr>     <chr>  
 1 Luke Skywalker     Tatooine  Human  
 2 C-3PO              Tatooine  Droid  
 3 R2-D2              Naboo     Droid  
 4 Darth Vader        Tatooine  Human  
 5 Leia Organa        Alderaan  Human  
 6 Owen Lars          Tatooine  Human  
 7 Beru Whitesun Lars Tatooine  Human  
 8 R5-D4              Tatooine  Droid  
 9 Biggs Darklighter  Tatooine  Human  
10 Obi-Wan Kenobi     Stewjon   Human  
# ℹ 77 more rows

For a range of columns

starwars |>
  select(name:hair_color, species)

# A tibble: 87 × 5
   name               height  mass hair_color    species
   <chr>               <int> <dbl> <chr>         <chr>  
 1 Luke Skywalker        172    77 blond         Human  
 2 C-3PO                 167    75 <NA>          Droid  
 3 R2-D2                  96    32 <NA>          Droid  
 4 Darth Vader           202   136 none          Human  
 5 Leia Organa           150    49 brown         Human  
 6 Owen Lars             178   120 brown, grey   Human  
 7 Beru Whitesun Lars    165    75 brown         Human  
 8 R5-D4                  97    32 <NA>          Droid  
 9 Biggs Darklighter     183    84 black         Human  
10 Obi-Wan Kenobi        182    77 auburn, white Human  
# ℹ 77 more rows

4e. RENAME columns

starwars |>
  rename(character = name, planet = homeworld)

# A tibble: 87 × 14
   character       height  mass hair_color skin_color eye_color birth_year sex  
   <chr>            <int> <dbl> <chr>      <chr>      <chr>          <dbl> <chr>
 1 Luke Skywalker     172    77 blond      fair       blue            19   male 
 2 C-3PO              167    75 <NA>       gold       yellow         112   none 
 3 R2-D2               96    32 <NA>       white, bl… red             33   none 
 4 Darth Vader        202   136 none       white      yellow          41.9 male 
 5 Leia Organa        150    49 brown      light      brown           19   fema…
 6 Owen Lars          178   120 brown, gr… light      blue            52   male 
 7 Beru Whitesun …    165    75 brown      light      blue            47   fema…
 8 R5-D4               97    32 <NA>       white, red red             NA   none 
 9 Biggs Darkligh…    183    84 black      light      brown           24   male 
10 Obi-Wan Kenobi     182    77 auburn, w… fair       blue-gray       57   male 
# ℹ 77 more rows
# ℹ 6 more variables: gender <chr>, planet <chr>, species <chr>, films <list>,
#   vehicles <list>, starships <list>
…
starwars |>
    mutate(taller_than122cm = ifelse(height > 122, TRUE, FALSE))

# A tibble: 87 × 15
   name     height  mass hair_color skin_color eye_color birth_year sex   gender
   <chr>     <int> <dbl> <chr>      <chr>      <chr>          <dbl> <chr> <chr> 
 1 Luke Sk…    172    77 blond      fair       blue            19   male  mascu…
 2 C-3PO       167    75 <NA>       gold       yellow         112   none  mascu…
 3 R2-D2        96    32 <NA>       white, bl… red             33   none  mascu…
 4 Darth V…    202   136 none       white      yellow          41.9 male  mascu…
 5 Leia Or…    150    49 brown      light      brown           19   fema… femin…
 6 Owen La…    178   120 brown, gr… light      blue            52   male  mascu…
 7 Beru Wh…    165    75 brown      light      blue            47   fema… femin…
 8 R5-D4        97    32 <NA>       white, red red             NA   none  mascu…
 9 Biggs D…    183    84 black      light      brown           24   male  mascu…
10 Obi-Wan…    182    77 auburn, w… fair       blue-gray       57   male  mascu…
# ℹ 77 more rows
# ℹ 6 more variables: homeworld <chr>, species <chr>, films <list>,
#   vehicles <list>, starships <list>, taller_than122cm <lgl>
…
Subset the Star Wars dataset, keeping only characters’ name, homeworld, and species.

Sort the dataset by species.

Then, create a new column that identifies whether the character is an organic lifeform or not.

5. Split-Apply-Combine

A very common data science technique is to split a dataset into groups, perform some action on each of those groups, and then combine the results from each group into one new dataset. For example, we can use this technique to calculate the average height of Star Wars characters by species using the group_by() and summarise() functions.

starwars |>
  group_by(species)

# A tibble: 87 × 14
# Groups:   species [38]
   name     height  mass hair_color skin_color eye_color birth_year sex   gender
   <chr>     <int> <dbl> <chr>      <chr>      <chr>          <dbl> <chr> <chr> 
 1 Luke Sk…    172    77 blond      fair       blue            19   male  mascu…
 2 C-3PO       167    75 <NA>       gold       yellow         112   none  mascu…
 3 R2-D2        96    32 <NA>       white, bl… red             33   none  mascu…
 4 Darth V…    202   136 none       white      yellow          41.9 male  mascu…
 5 Leia Or…    150    49 brown      light      brown           19   fema… femin…
 6 Owen La…    178   120 brown, gr… light      blue            52   male  mascu…
 7 Beru Wh…    165    75 brown      light      blue            47   fema… femin…
 8 R5-D4        97    32 <NA>       white, red red             NA   none  mascu…
 9 Biggs D…    183    84 black      light      brown           24   male  mascu…
10 Obi-Wan…    182    77 auburn, w… fair       blue-gray       57   male  mascu…
# ℹ 77 more rows
# ℹ 5 more variables: homeworld <chr>, species <chr>, films <list>,
#   vehicles <list>, starships <list>

starwars |> 
  group_by(species) |>
  summarise(avg_height = mean(height, na.rm = TRUE)) 

# A tibble: 38 × 2
   species   avg_height
   <chr>          <dbl>
 1 Aleena           79 
 2 Besalisk        198 
 3 Cerean          198 
 4 Chagrian        196 
 5 Clawdite        168 
 6 Droid           131.
 7 Dug             112 
 8 Ewok             88 
 9 Geonosian       183 
10 Gungan          209.
# ℹ 28 more rows

starwars |>    
  group_by(species) |>   
  summarise(avg_height = mean(height, na.rm = TRUE)) |>  
  arrange(avg_height) 

# A tibble: 38 × 2
   species        avg_height
   <chr>               <dbl>
 1 Yoda's species        66 
 2 Aleena                79 
 3 Ewok                  88 
 4 Vulptereen            94 
 5 Dug                  112 
 6 Xexto                122 
 7 Droid                131.
 8 Toydarian            137 
 9 Sullustan            160 
10 Toong                163 
# ℹ 28 more rows
…
