nbs03a-03c_teacher-notes
…
#data()
help(msleep)

starting httpd help server ... done

msleep

# A tibble: 83 × 11
   name   genus vore  order conservation sleep_total sleep_rem sleep_cycle awake
   <chr>  <chr> <chr> <chr> <chr>              <dbl>     <dbl>       <dbl> <dbl>
 1 Cheet… Acin… carni Carn… lc                  12.1      NA        NA      11.9
 2 Owl m… Aotus omni  Prim… <NA>                17         1.8      NA       7  
 3 Mount… Aplo… herbi Rode… nt                  14.4       2.4      NA       9.6
 4 Great… Blar… omni  Sori… lc                  14.9       2.3       0.133   9.1
 5 Cow    Bos   herbi Arti… domesticated         4         0.7       0.667  20  
 6 Three… Brad… herbi Pilo… <NA>                14.4       2.2       0.767   9.6
 7 North… Call… carni Carn… vu                   8.7       1.4       0.383  15.3
 8 Vespe… Calo… <NA>  Rode… <NA>                 7        NA        NA      17  
 9 Dog    Canis carni Carn… domesticated        10.1       2.9       0.333  13.9
10 Roe d… Capr… herbi Arti… lc                   3        NA        NA      21  
# ℹ 73 more rows
# ℹ 2 more variables: brainwt <dbl>, bodywt <dbl>
…
[PRES - exercise]

1.3 Exploring Categorical Data

We can use the distinct() function to identify a list of unique values in the “genus” column. To apply it to one column of the dataset, let’s practice using the piping syntax of tidyverse:

dataset_name |>   function(column)

msleep |>
  distinct(genus)

# A tibble: 77 × 1
   genus      
   <chr>      
 1 Acinonyx   
 2 Aotus      
 3 Aplodontia 
 4 Blarina    
 5 Bos        
 6 Bradypus   
 7 Callorhinus
 8 Calomys    
 9 Canis      
10 Capreolus  
# ℹ 67 more rows

To generate a frequency count of the values found in a column we can use the function count(). To sort the results, we can also add the parameter sort=TRUE.

msleep |>
    count(genus, sort=TRUE)

# A tibble: 77 × 2
   genus            n
   <chr>        <int>
 1 Panthera         3
 2 Spermophilus     3
 3 Equus            2
 4 Vulpes           2
 5 Acinonyx         1
 6 Aotus            1
 7 Aplodontia       1
 8 Blarina          1
 9 Bos              1
10 Bradypus         1
# ℹ 67 more rows
…
